3
Vinicius de Sousa Saturnino
DF
vinicius@gmail.com
05561699130
(61)987541245
M
Matheus Monteiro
Riacho Fundo
matheusmonteiro@gmail.com
05921717124
985642123
M
Generico
quadra 2 conjunto i
generico@gmail.com
12312312312
986542123
M
